{
	"id": 11643570,
	"host_id": 12749688,
	"host_name": "Sorin And Anca",
	"super_host": true,
	"instant_book": true,
	"max_guests": 4,
	"bathrooms": 1,
	"bedrooms": 1,
	"total_beds": 3,
	"king_beds": 0,
	"queen_beds": 1,
	"single_beds": 2,
	"double_beds": 0,
	"sofa_beds": 0,
	"air_mattresses": 0,
	"bunk_beds": 0,
	"couches": 0,
	"cribs": 0,
	"floor_mattresses": 0,
	"hammocks": 0,
	"toddler_beds": 0,
	"water_beds": 0,
	"property_type": "apartment",
	"room_type": "entire_home",
	"extra_people_fee": 5,
	"guests_without_extra_fee": 2,
	"cleaning_fee": 7.0,
	"security_deposit": 0,
	"weekly_discount_perc": 0.0,
	"monthly_discount_perc": 0.0,
	"cancellation_policy": "moderate",
	"amenities": ["kitchen", "internet", "tv", "essentials", "shampoo", "heating", "wireless_internet", "cable", "family_friendly", "buzzer", "hangers", "iron", "hair_dryer", "laptop_friendly", "fire_extinguisher", "first_aid_kit"],
	"allows_children": true,
	"allows_infants": true,
	"allows_pets": false,
	"allows_smoking": false,
	"allows_events": false,
	"review_count": 69,
	"review_score": 99,
	"review_score_accuracy": 100,
	"review_score_communication": 100,
	"review_score_cleanliness": 100,
	"review_score_location": 100,
	"review_score_checkin": 100,
	"review_score_value": 100
}